1 - username: thiagoc
 enviadas
   valor total: 675
   quantidade total: 27
 recebidas
   valor total: 1200.25
     bonus: 540.25
     pacote: 660
   valor medio: 50.01
   quantidade total: 24
 lucro
   valor: 525.25
 próximo
        id: 23075 ( 500 faltantes)
   receber: 79.5


2 - username: thiagocs
 enviadas
   valor total: 550
   quantidade total: 22
 recebidas
   valor total: 574.5
     bonus: 24.5
     pacote: 550
   valor medio: 28.73
   quantidade total: 20
 lucro
   valor: 24.5
 próximo
        id: 23059 ( 484 faltantes)
   receber: 33.5


3 - username: thiagocss
 enviadas
   valor total: 475
   quantidade total: 19
 recebidas
   valor total: 497
     bonus: 29.5
     pacote: 467.5
   valor medio: 29.24
   quantidade total: 17
 lucro
   valor: 22
 próximo
        id: 24344 ( 1769 faltantes)
   receber: 33.5


4 - username: thiagocsss
 enviadas
   valor total: 350
   quantidade total: 7
 recebidas
   valor total: 285
     bonus: 10
     pacote: 275
   valor medio: 57
   quantidade total: 5
 lucro
   valor: -65
 próximo
        id: 24340 ( 1765 faltantes)
   receber: 57


5 - username: thiagocssss
 enviadas
   valor total: 350
   quantidade total: 7
 recebidas
   valor total: 275
     bonus: 0
     pacote: 275
   valor medio: 55
   quantidade total: 5
 lucro
   valor: -75
 próximo
        id: 24337 ( 1762 faltantes)
   receber: 55


6 - username: thiagoc1
 enviadas
   valor total: 150
   quantidade total: 3
 recebidas
   valor total: 55
     bonus: 0
     pacote: 55
   valor medio: 55
   quantidade total: 1
 lucro
   valor: -95
 próximo
        id: 24058 ( 1483 faltantes)
   receber: 66.5


7 - username: thiagoc2
 enviadas
   valor total: 150
   quantidade total: 3
 recebidas
   valor total: 55
     bonus: 0
     pacote: 55
   valor medio: 55
   quantidade total: 1
 lucro
   valor: -95
 próximo
        id: 24097 ( 1522 faltantes)
   receber: 66.5


valor total
   enviadas: 2700
   recebidas: 2941.75
     bonus: 604.25
     pacote: 2337.5
   lucro: 241.75 (967)

próximo
   enviar: 275 (1100)
   receber: 391.5 (1566)
     bonus: 89
     pacote: 302.5
   lucro: 116.5 (466)
proxima ordem a ser paga: 22575
